{
    "id": "B-LCOM",
    "name": "Left Communist",
    "leaf": "L-COMM",
    "subbranches": {
        "Council Communism (Dutch-German Current)": "",
        "Italian Communist Left": ""
    },
    "definition": "<b>Left Communists</b> reject bureaucratic forms of organization, believing that the process of overthrowing capitalism and creating socialist society must be done by the workers themselves.",
    "notes": [
        "Left-communists are typically opposed to organizing through electoral parties or trade unions, believing them to be a diversion.",
        "Left-communists are critical of Leninism, believing both the USSR and China to be 'state-capitalist' societies rather than truly socialist.",
        "There are two traditions, Dutch-German and Italian: the former holds democracy as a principle and often organizes through workers' councils, whereas the latter rejects democracy as a principle and prefers to make use of a vanguard party."
    ],
    "references": [
        "pannekoek_workers-councils",
        "luxemberg_reform-or-revolution",
        "camatte_democratic-mystification",
        "bordiga_science-and-passion"
    ],
    "reference-categories": [
        "Council Communism",
        "Italian Communist Left"
    ],
    "additional-references": [
        [
            "pannekoek_workers-councils",
            "luxemberg_reform-or-revolution"
        ],
        [
            "camatte_democratic-mystification",
            "bordiga_science-and-passion"
        ]
    ]
}