{
    "id": "B-UTOP",
    "name": "Utopian",
    "leaf": "L-PROG",
    "subbranches": {},
    "definition": "<b>Utopians</b> believe in making a peaceful case for socialism through the presentation of alternative ideals, either through theoretical blueprinting or experimenting with communes.",
    "notes": [
        "Unlike other left-wing movements, utopians work in the opposite direction, starting from a future ideal and working back to the present.",
        "Utopians rely on a form of praxis known as 'prefigurative politics', which involves building and growing socialist institutions from within a capitalist society.",
        "Utopians see socialism as achieved through the cooperation of classes as opposed to class struggle, although this isn't necessarily always the case.",
        "They typically advocate for socialism on ethical rather than pragmatic grounds."
    ],
    "references": [
        "fisher_capitalist-realism",
        "wright_real-utopia",
        "fourier_theory-of-four-movements"
    ],
    "reference-categories": []
}