{
        "id": "F-PRSNvSOCL",
        "leaf": "L-INTG",
        "set": "A",
        "question": "Is poverty an issue of personal or social responsibility?",
        "passage-a":  "When people face consequences for their choices, they look for someone or something to blame. Maturity means accepting responsibility instead of placing it on others. Just like with an immature child, when you take something away from a person who feels entitled to it, they whine and complain and come up with all kinds of reasons to why society owes them. Being irresponsible with your money, not working hard enough, these are things that disqualify you from being able to make demands of the government.",
        "passage-b":  "Man, by nature is dependent on the assistance of his peers. If society was simply a sum of individuals, the individual good and the social good would be one and the same: but this is not the case. Alone, man is helpless, but once he enters into society he becomes part of something greater, a common good which is greater than its parts. Once a man enters into society, the relationship becomes reciprocal. His contributions develop the common good, which once formed, ensures the well-being of its members." ,
        "source-a": "https://open.life.church/items/135522-transcript-pdf",
        "source-b": "https://maritain.nd.edu/jmc/etext/CG04.HTM",
        "branch-a": "B-PALO",
        "branch-b": "B-PATR"
        
}









