{
    "id": "drucker_concept-of-the-corporation",
    "title": "Concept of the Corporation",
    "author": "Peter Drucker",
    "section": "B-TCHN",
    "subsection": false,
    "pdf": "bafykbzacecusmpqk4i3lzdfbgjsi6a63m4lsarhjnxou5jvr5uczrji6qgxvu",
    "epub": "",
    "length": 2.5,
    "difficulty": 1,
    "genre": "Economics",
    "type": "Perspective",
    "summary": "Following an 18 month study from within General Motors, Drucker develops an anatomy of the modern corporation and highlights practices which made GM successful."
}