{
    "id": "jervis_nuclear-revolution",
    "title": "The Meaning of the Nuclear Revolution",
    "author": "Robert Jervis",
    "section": "L-INTR",
    "subsection": false,
    "pdf": "bafykbzacea6ly4eqluj7bpdfgwfyywzdzdszux2bdgiduzl6p7wvfpypzkpxa",
    "epub": "",
    "length": 2,
    "difficulty": 1,
    "genre": "International Relations",
    "type": "Theory",
    "summary": "Jervis discusses the most important military development in the past century \u2014 nuclear weapons \u2014 and how it has completely reshaped geopolitical strategy."
}