{
    "id": "mackay+avanessian_accelerationist-reader",
    "title": "#Accelerate: The Accelerationist Reader",
    "author": "Robert MacKay and Armen Avanessian",
    "section": "L-ACCL",
    "subsection": false,
    "pdf": "bafykbzacebwrset6ubffb3rpjr2fq2zoymfqzyvxuojmwpbjqwl74usfuctse",
    "epub": "",
    "length": 3.5,
    "difficulty": 3.5,
    "genre": "Politics",
    "type": "Seminal",
    "summary": "Accelerationist theory covers a wide variety of perspectives and is often fragmented across the internet; this book serves as a good, albeit slightly outdated starting guide to navigating the topic."
}