{
    "id": "mearsheimer_tragedy-of-great-power-politics",
    "title": "The Tragedy of Great Power Politics",
    "author": "John Mearsheimer",
    "section": "B-REAL",
    "subsection": false,
    "pdf": "bafykbzaceda6dgmem7b77gziy6m5zs32a7ttc52fkcgqtutpo7otzly7rcs52",
    "epub": "",
    "length": 3,
    "difficulty": 1.5,
    "genre": "International Relations",
    "type": "Critique",
    "summary": "Mearsheimer launches an attack on the realists of his time, crafting a type of realism referred to as 'offensive neorealism'."
}