{
    "id": "popper_the-open-society",
    "title": "The Open Society and Its Enemies",
    "author": "Karl Popper",
    "section": "B-SYNC",
    "subsection": false,
    "pdf": "bafykbzacedsku4qku6d4nrnekb6by4rh6jkuw5tqqejkwluc4knlswihpwbsk",
    "epub": "bafykbzacecaavv2e6tjdlj4jotoekov3kpcarea5czleamtrc2mdoukvmwksc",
    "length": 2.5,
    "difficulty": 2.5,
    "genre": "Politics",
    "type": "Critique",
    "summary": "Popper criticizes the historiography and grand narratives of Plato, Hegel, and Marx as part of a staunch defense of liberal democracy."
}