{
    "id": "singer_most-good-you-can-do",
    "title": "The Most Good You Can Do",
    "author": "Peter Singer",
    "section": "B-RCNT",
    "subsection": false,
    "pdf": "bafykbzacebc5lgfwmgavjivybw3izdbvslewefhn7ea4cxtvfrnqie32npedk",
    "epub": "bafykbzacecaiov4sayl5w4mufe7ashzq7noiqrlvpekdklqjipchpttv54lwq",
    "length": 1.5,
    "difficulty": 0.5,
    "genre": "Ethics",
    "type": "Theory",
    "summary": "Singer lays out a case for 'effective altruism': basing your moral and political action not on emotions, but on what objectively will allow you to maximize the amount of good in the world."
}
