{
	"id": "Q-CON",
	"weight": 1,
	"focus": ["C-POL"],
	"question": "Conflict is...?",
	"answers": [
			{
				"weight": 1,
				"answer": "a product of unequal power, something which can be resolved in a more fair system", 
				"approach": ["C-LFT"]
			},
			{
				"weight": 1,
				"answer": "something that can only be dealt with peacefully by a stable and inclusive government",
				"approach": ["C-LIB"]
			},
			{
				"weight": 1,
				"answer": "inevitable, so one must be willing to win even at the expense of others",
				"approach": ["C-RIG"]
			}
		]

}
