{
	"id": "Q-HIS",
	"focus": ["C-IDE"],
	"question": "The purpose of history...?",
	"weight": 1,
	"answers": [
			{
				"answer": "is to deny the agency and experiences of individuals, trapping people within a mythology of past events", 
				"weight": 1,
				"approach": ["C-LFT"]
			},
			{
				"weight": 1,
				"answer": "is to allow us to understand how we got where we did and in what ways society can move forward",
				"approach": ["C-LIB"]
			},
			{
				"weight": 1,
				"answer": "is to remind us of the achievements of our forefathers and provide future generations with a legacy to protect",
				"approach": ["C-RIG"]
			}
		]

}
