{
	"id": "Q-IDN",
	"focus": ["C-POL"],
	"question": "Identity is...?",
	"weight": 1,
	"answers": [
			{
				"answer": "a social construct which legitimizes inequalities",
				"weight": 1, 
				"approach": ["C-LFT"]
			},
			{
				"answer": "a collection of shared values, interests, and experiences",
				"weight": 1,
				"approach": ["C-LIB"]
			},
			{
				"answer": "an inherent bond connecting a people, requiring sacrifice on part of individuals",
				"weight": 1,
				"approach": ["C-RIG"]
			}
		]

}
