{
    "id": "maximoff_constructive-anarchism",
    "title": "Constructive Anarchism",
    "author": "G.P. Maximoff",
    "section": "B-SANR",
    "subsection": true,
    "pdf": "",
    "epub": "",
    "length": 0.5,
    "difficulty": 1.5,
    "genre": "Politics",
    "type": "Tactics",
    "summary": "A series of writings by different thinkers throughout history regarding the topic of a unified anarchist platform: ranging from the original Platformists to the contemporary Synthesis Anarchists."
}